851973 283624 525
868832 971272 507
300174 810262 509
887536 668869 525
319182 44764 443
825559 466469 509
953124 522590 525
158577 13926 383
703365 816643 504
302397 939160 525
49742 200674 383
602259 982486 525
334768 609414 470
462584 673312 509
257192 243253 363
238516 761632 509
726107 937006 525
107834 646780 509
479414 215156 449
661618 476684 509
31526 73625 340
967901 495144 525
22907 292673 443
430770 8350 449
927337 500729 525
183409 860885 525
443227 880415 525
199422 656867 509
109656 425682 449
645765 850101 525
3742 819848 509
21613 784584 509
341577 9719 443
550284 324938 470
694797 329634 509
637920 734201 504
333951 121492 443
246967 546163 470
240824 994591 525
731513 756745 424
154948 301458 443
760141 22034 509
623491 731277 509
253329 120585 443
418009 457321 418
148662 200556 383
867810 450718 525
769889 310933 509
651738 43304 509
449249 631355 509
712301 326563 509
846066 183158 525
521551 586523 452
470431 750531 509
213860 880154 525
939717 13215 525
197532 256815 443
816569 924268 525
64311 743708 509
334155 739285 509
468877 77582 449
958285 761398 525
477530 87236 449
182673 43163 383
564096 222201 470
980001 360897 525
977013 463939 525
730929 141823 509
285615 737831 509
650681 564491 509
956065 341906 525
962238 8852 525
601295 47918 470
872916 183160 525
805520 645531 504
488737 942801 525
585149 937861 525
333760 130325 443
663894 438633 509
350376 325452 441
817348 459397 509
921632 507437 525
637797 960613 525
118416 184294 383
368262 229210 443
134048 911463 525
887457 588139 525
319239 654335 509
411646 384332 449
462738 430238 444
277879 920447 525
640817 70405 509
495489 513626 470
994473 46654 525
735404 806476 468
2512 167253 383
739352 734591 424
676460 227747 509
545704 432795 470
3023 615487 470
36 439022 449
949534 221461 525
189965 492207 449
990344 995602 365
675247 292890 509
930444 52945 525
802709 639836 504
506759 426403 444
867625 898487 445
60206 868411 525
120326 367170 443
204824 963572 525
505170 638326 509
331048 566072 470
232094 760140 509
421592 585055 470
303048 214782 443
240222 899884 525
158599 585840 470
540681 489651 470
899198 768236 525
263920 520670 470
543273 611878 452
96891 911955 525
592001 7976 470
232036 550371 470
707290 533007 509
518172 287630 470
903700 11405 525
2330 744725 509
968543 976916 458
95159 796007 509
48209 379129 443
545129 394261 470
279834 701984 509
852808 468320 525
989369 142672 525
168374 497899 449
380318 690783 509
962914 147799 525
629944 327817 509
20800 826908 509
289207 789916 509
138903 674994 509
549147 963451 525
916846 917731 383
679432 179865 509
623213 500467 470
605598 3548 470
933630 31321 525
466318 746624 509
377918 872990 525
941317 854924 507
675814 775016 504
43389 219243 386
279669 532685 470
266346 993238 525
894614 705848 525
428620 482690 444
488260 82630 449
719689 878 509
771664 187229 509
933216 684155 525
579199 550142 421
696629 381040 509
206241 935955 525
31393 968106 525
742629 743218 318
624144 275498 470
581077 980903 525
294937 258922 407
914864 226554 525
368317 852398 525
136330 452074 449
380163 944993 525
498270 585116 470
542456 611257 452
500412 460296 444
416351 538324 470
283582 435882 449
621931 110336 470
416000 595172 470
696525 549522 509
159823 290373 443
77257 836952 509
356256 287625 441
9282 489608 449
666018 846930 525
169355 491736 449
119036 342181 443
50305 9605 324
625388 822830 509
463185 148607 449
934171 809464 525
568658 799520 509
186117 1795 383
171551 955243 525
330614 784326 509
276375 88356 443
118405 443991 449
56064 953035 525
109998 951946 525
194979 513324 470
583169 776373 509
620092 723073 509
837374 430161 509
741768 469139 509
541238 164154 470
514105 879266 525
65933 485336 449
72262 734597 509
901424 897769 401
53496 859971 525
64619 387096 443
800770 520436 509
877592 14737 525
832344 618427 509
915145 171042 525
131146 481819 449
916335 485895 525
690871 133749 509
142044 878713 525
124359 406697 443
264586 776540 509
199025 524852 470
896280 145512 525
993891 627156 525
780534 52805 509
579806 298127 470
210676 727454 509
792261 104661 509
643643 376925 509
113898 552982 470
112878 334139 443
695956 50729 509
881747 172090 525
336150 752894 509
309385 360697 441
754584 474004 509
113971 303758 443
104547 117073 354
976144 785460 525
540475 135708 470
843544 88212 525
550678 245666 470
266508 59023 443
298827 992662 525
427974 194975 449
661379 321343 509
434072 844352 525
493763 707447 509
227225 921461 525
