563150 253108 470
5128 76088 340
82939 9949 351
173463 431050 449
793091 327907 509
603376 715893 509
134221 376388 443
2120 52570 340
903895 784113 525
957820 999380 458
573714 293977 470
389535 876078 525
834613 640389 504
681587 432393 509
979375 618533 525
249287 459133 449
46594 301606 443
213722 163059 373
440051 659545 509
134982 906416 525
677393 118915 509
976888 70266 525
745888 726460 424
710754 150098 509
595735 130519 470
48806 201106 383
497746 898918 525
667084 639105 442
416347 776260 509
623139 270681 470
966571 831380 525
673966 373187 509
766076 790822 468
242335 824294 509
524055 975199 525
832857 409475 509
762136 651932 504
535641 505204 470
16969 328193 443
675204 539897 509
166015 101308 383
602022 943303 525
710606 385148 509
394063 769869 509
397578 5978 443
350337 431910 449
168353 142855 383
264447 40947 443
218703 534015 470
561027 686468 509
550526 155811 470
850015 694591 525
378362 183480 443
564078 969375 525
73472 19771 340
354647 787337 509
998492 934225 507
934624 999990 507
456820 577563 470
313967 188419 443
45950 95399 351
705012 314766 509
326111 471711 449
665829 993815 525
72562 64073 325
561504 59346 470
719782 946129 525
85092 813646 509
982351 344707 525
799043 55625 509
996815 761475 525
281460 434809 449
448825 296420 449
944348 696743 525
722130 197218 509
12402 340090 443
120155 444753 449
881709 34780 525
922966 633333 525
927087 471440 525
612626 679334 509
79023 743823 509
288268 636335 509
636245 876315 525
255250 783169 509
549082 719472 509
984214 545331 525
95510 634276 509
309277 232981 407
555197 797987 509
764192 648004 504
974322 682729 525
671983 431820 509
184862 278868 443
872982 476550 525
11425 485860 449
486434 956432 525
90033 222414 386
281218 702708 509
848138 156257 525
933165 572070 525
72689 89133 351
217622 326376 443
844813 479592 525
909344 612193 525
416819 569821 470
979092 561607 525
402019 649751 509
873766 340945 525
833508 563956 509
188556 356955 443
807190 902738 525
209107 282129 443
498873 77082 449
737449 316800 509
710966 387654 509
238788 668194 509
658066 922362 525
602518 692382 509
636417 554852 509
405115 830367 509
625349 890609 525
607681 195320 470
645234 820408 504
82622 625144 470
714262 834730 468
927680 624890 525
213514 140214 383
133095 43698 354
140605 678384 509
971114 915175 507
163924 570741 470
253204 977799 525
113991 906634 525
893398 975969 507
941808 573032 525
174498 564439 470
8054 543008 470
717825 330405 509
939814 131586 525
421619 243839 449
553648 414825 470
177585 576392 470
380724 262382 441
634273 322621 509
761729 409012 509
962508 877371 507
551630 600088 434
242724 456393 449
183901 121487 383
616474 494390 470
763798 580629 509
596531 43344 470
632109 589413 509
795214 22395 509
848724 196690 525
911009 312136 525
977062 419820 525
853802 316499 525
114871 84146 354
396295 545227 470
647943 608419 509
459716 679901 509
704199 646843 442
566509 64924 470
355337 61674 443
811603 323548 509
999223 997295 440
666730 948652 525
151519 666807 509
355785 939061 525
472486 491100 413
875630 605562 525
983557 968310 458
315971 223510 443
932160 489732 525
576484 6066 470
819842 446428 509
406509 436837 449
652729 956875 525
604472 418571 470
970772 289100 525
697615 100709 509
352817 179813 443
264305 960366 525
211855 195712 373
151668 174718 383
91290 408877 443
388618 637638 509
786398 387053 509
93848 739636 509
740261 590174 509
760836 19397 509
600966 827291 509
6721 231769 443
852427 699785 525
592029 172000 470
690722 598334 509
807733 169703 509
883811 240324 525
235238 125510 443
335309 232400 407
328151 381562 441
535422 175801 470
757933 845653 525
501049 413236 444
916752 242424 525
774676 878168 525
392707 281355 441
450380 636701 509
878903 201507 525
294376 296291 358
281083 964834 525
685602 627470 442
863189 929903 476
442063 307199 449
939121 146230 525
669742 288364 509
821501 989733 525
86396 607116 470
85549 57634 351
131557 328460 443
821297 25629 509
128749 244944 443
73150 584077 470
115709 140147 344
996858 328380 525
434323 367528 449
445852 633647 509
672863 557414 509
463454 948287 525
